module github.com/heshoots/discordbot

require (
	github.com/bwmarrin/discordgo v0.18.0
	github.com/cenkalti/backoff v1.1.0 // indirect
	github.com/dghubble/go-twitter v0.0.0-20170910035229-c4115fa44a92
	github.com/dghubble/oauth1 v0.4.0
	github.com/dghubble/sling v1.1.0 // indirect
	github.com/go-pg/pg v6.9.0+incompatible
	github.com/google/go-querystring v0.0.0-20170111101155-53e6ce116135 // indirect
	github.com/gorilla/websocket v1.2.0 // indirect
	github.com/jinzhu/inflection v0.0.0-20170102125226-1c35d901db3d // indirect
	github.com/kelseyhightower/envconfig v1.3.0
	github.com/yhat/scrape v0.0.0-20161128144610-24b7890b0945
	golang.org/x/crypto v0.0.0-20180123095555-3d37316aaa6b // indirect
	golang.org/x/net v0.0.0-20180124060956-0ed95abb35c4
)
